\relax 
\providecommand\hyper@newdestlabel[2]{}
\@setckpt{figures/rc}{
\setcounter{page}{29}
\setcounter{equation}{0}
\setcounter{enumi}{0}
\setcounter{enumii}{0}
\setcounter{enumiii}{0}
\setcounter{enumiv}{0}
\setcounter{footnote}{0}
\setcounter{mpfootnote}{0}
\setcounter{beamerpauses}{1}
\setcounter{bookmark@seq@number}{1}
\setcounter{lecture}{0}
\setcounter{part}{0}
\setcounter{section}{1}
\setcounter{subsection}{0}
\setcounter{subsubsection}{0}
\setcounter{subsectionslide}{3}
\setcounter{framenumber}{11}
\setcounter{figure}{0}
\setcounter{table}{0}
\setcounter{parentequation}{0}
\setcounter{theorem}{0}
\setcounter{lstnumber}{11}
\setcounter{r@tfl@t}{0}
\setcounter{section@level}{0}
\setcounter{lstlisting}{0}
}
